165520	,
173074	,
165522	,
317688	,
166144	,
327252	,
295665	,
327265	,
166121	,
165512	,
166136	,
165543	,
295664	,
166159	,
165519	,
319379	,
166142	,
166148	,
166128	,
173070	,
165523	,
327247	,
305520	,
166157	,
166147	,
166161	,
329391	,
165547	,
165526	,
165537	,
165514	,
166156	,
295670	,
165527	,
166134	,
166143	,
166124	,
295667	,
165489	,
301546	,
165493	,
165492	,
165504	,
165481	,
165484	,
301538	,
165503	,
165471	,
165480	,
301541	,
165457	,
328156	,
165443	,
165451	,
318461	,
300854	,
165439	,
319389	,
312263	,
165433	,
318465	,
165454	,
165459	,
165423	,
166043	,
166024	,
315498	,
166018	,
166007	,
315502	,
166030	,
166029	,
166012	,
166048	,
315495	,
282401	,
166027	,
165807	,
166005	,
165799	,
315732	,
166010	,
166008	,
166032	,
165819	,
166044	,
166034	,
165816	,
165795	,
165823	,
165826	,
166004	,
166050	,
165820	,
165844	,
315730	,
166040	,
315731	,
166025	,
165978	,
165961	,
165993	,
165992	,
165976	,
165979	,
165967	,
358937	,
165954	,
165995	,
165910	,
165922	,
165941	,
165921	,
165939	,
165780	,
165930	,
165779	,
165925	,
165931	,
165916	,
165945	,
165915	,
165830	,
165839	,
165571	,
165558	,
314426	,
165705	,
165608	,
349384	,
165607	,
165707	,
165572	,
165559	,
165584	,
165577	,
165658	,
165597	,
165590	,
165686	,
290517	,
165589	,
165596	,
165694	,
165555	,
282402	,
290516	,
165557	,
165687	,
301536	,
291480	,
165684	,
165693	,
165697	,
165672	,
165670	,
165676	,
165668	,
337881	,
165614	,
327251	,
165619	,
165616	,
327250	,
165621	,
165644	,
165902	,
326138	,
323497	,
165875	,
165848	,
165849	,
291479	,
323499	,
165867	,
165894	,
165853	,
308583	,
165404	,
165403	,
319752	,
342886	,
165409	,
165389	,
165384	,
165395	,
345930	,
165271	,
165285	,
296553	,
165289	,
165273	,
165264	,
165269	,
358946	,
165293	,
165274	,
165352	,
323501	,
349381	,
323502	,
323507	,
327706	,
165752	,
165760	,
165757	,
319519	,
165751	,
165758	,
165727	,
319520	,
165756	,
166094	,
166080	,
166093	,
166114	,
178528	,
178579	,
178566	,
178550	,
178556	,
178576	,
178527	,
178492	,
178483	,
178526	,
335431	,
178217	,
178209	,
178214	,
178256	,
178266	,
178268	,
178250	,
178328	,
178327	,
178323	,
178115	,
178077	,
178117	,
178141	,
178091	,
178138	,
178137	,
317062	,
317051	,
317057	,
317040	,
317058	,
317054	,
317042	,
317046	,
178276	,
317050	,
317063	,
339799	,
317035	,
178595	,
178619	,
178592	,
178599	,
178600	,
178608	,
178628	,
178206	,
178166	,
178169	,
178179	,
296560	,
178352	,
178359	,
178443	,
178437	,
178434	,
328090	,
328085	,
175925	,
175935	,
175918	,
175921	,
175922	,
295683	,
175919	,
175937	,
175928	,
328099	,
335300	,
335358	,
176136	,
176119	,
323537	,
176126	,
323536	,
335321	,
176041	,
176081	,
176083	,
176087	,
176088	,
176089	,
176084	,
176011	,
176006	,
175993	,
295682	,
176038	,
175950	,
175949	,
175977	,
175979	,
328112	,
323511	,
293711	,
323509	,
293695	,
293709	,
323514	,
323510	,
174472	,
293717	,
319756	,
174442	,
174438	,
174446	,
174433	,
174406	,
174417	,
174441	,
174415	,
174425	,
174435	,
174405	,
174481	,
174480	,
174501	,
174489	,
174500	,
174499	,
174478	,
174491	,
174496	,
174497	,
174492	,
174392	,
174386	,
174377	,
319762	,
174393	,
174351	,
319761	,
174396	,
174374	,
174391	,
174547	,
174573	,
174525	,
174562	,
174528	,
174565	,
174532	,
174538	,
174553	,
174574	,
174558	,
174536	,
174526	,
174543	,
319521	,
164079	,
164059	,
164057	,
335069	,
164098	,
364417	,
164156	,
164101	,
164133	,
364410	,
164020	,
164047	,
290523	,
163986	,
344643	,
163994	,
290522	,
164051	,
164044	,
164021	,
164030	,
164018	,
290525	,
163987	,
164249	,
164237	,
164258	,
164229	,
164227	,
164228	,
164275	,
344727	,
164238	,
164265	,
164235	,
164240	,
164243	,
164218	,
164256	,
164222	,
164250	,
164254	,
164226	,
327720	,
164262	,
164335	,
164359	,
345638	,
164346	,
164318	,
164313	,
361598	,
164300	,
164350	,
164292	,
164289	,
164190	,
328029	,
164184	,
164188	,
328161	,
164193	,
164208	,
164195	,
